999
dxfrw 0.6.3
  0
SECTION
  2
HEADER
  9
$ACADVER
  1
AC1021
  9
$DWGCODEPAGE
  3
ANSI_1252
  9
$INSBASE
 10
0
 20
0
 30
0
  9
$EXTMIN
 10
31.6305
 20
-67.3278
 30
0
  9
$EXTMAX
 10
74.43049999999999
 20
-27.3076
 30
0
  9
$LIMMIN
 10
0
 20
0
  9
$LIMMAX
 10
420
 20
297
  9
$ORTHOMODE
 70
    0
  9
$REGENMODE
 70
    1
  9
$FILLMODE
 70
    1
  9
$QTEXTMODE
 70
    0
  9
$MIRRTEXT
 70
    0
  9
$LTSCALE
 40
1
  9
$ATTMODE
 70
    0
  9
$TEXTSIZE
 40
2.5
  9
$TRACEWID
 40
15.68
  9
$TEXTSTYLE
  7
STANDARD
  9
$CLAYER
  8
guides1
  9
$CELTYPE
  6
BYLAYER
  9
$CECOLOR
 62
  256
  9
$CELTSCALE
 40
1
  9
$DISPSILH
 70
    0
  9
$DIMSCALE
 40
2.5
  9
$DIMASZ
 40
2.5
  9
$DIMEXO
 40
0.625
  9
$DIMDLI
 40
3.75
  9
$DIMRND
 40
0
  9
$DIMDLE
 40
0
  9
$DIMEXE
 40
1.25
  9
$DIMTP
 40
0
  9
$DIMTM
 40
0
  9
$DIMTXT
 40
2.5
  9
$DIMCEN
 40
2.5
  9
$DIMTSZ
 40
0
  9
$DIMTOL
 70
    0
  9
$DIMLIM
 70
    0
  9
$DIMTIH
 70
    0
  9
$DIMTOH
 70
    0
  9
$DIMSE1
 70
    0
  9
$DIMSE2
 70
    0
  9
$DIMTAD
 70
    1
  9
$DIMZIN
 70
    8
  9
$DIMBLK
  1

  9
$DIMASO
 70
    1
  9
$DIMSHO
 70
    1
  9
$DIMPOST
  1

  9
$DIMAPOST
  1

  9
$DIMALT
 70
    0
  9
$DIMALTD
 70
    3
  9
$DIMALTF
 40
0.03937
  9
$DIMLFAC
 40
1
  9
$DIMTOFL
 70
    1
  9
$DIMTVP
 40
0
  9
$DIMTIX
 70
    0
  9
$DIMSOXD
 70
    0
  9
$DIMSAH
 70
    0
  9
$DIMBLK1
  1

  9
$DIMBLK2
  1

  9
$DIMSTYLE
  2
Standard
  9
$DIMCLRD
 70
    0
  9
$DIMCLRE
 70
    0
  9
$DIMCLRT
 70
    0
  9
$DIMTFAC
 40
1
  9
$DIMGAP
 40
0.625
  9
$DIMJUST
 70
    0
  9
$DIMSD1
 70
    0
  9
$DIMSD2
 70
    0
  9
$DIMTOLJ
 70
    0
  9
$DIMTZIN
 70
    8
  9
$DIMALTZ
 70
    0
  9
$DIMALTTZ
 70
    0
  9
$DIMUPT
 70
    0
  9
$DIMDEC
 70
    2
  9
$DIMTDEC
 70
    2
  9
$DIMALTU
 70
    2
  9
$DIMALTTD
 70
    3
  9
$DIMTXSTY
  7
STANDARD
  9
$DIMAUNIT
 70
    0
  9
$DIMADEC
 70
    0
  9
$DIMALTRND
 40
0
  9
$DIMAZIN
 70
    0
  9
$DIMDSEP
 70
   44
  9
$DIMATFIT
 70
    3
  9
$DIMFRAC
 70
    0
  9
$DIMLDRBLK
  1
STANDARD
  9
$DIMLUNIT
 70
    2
  9
$DIMLWD
 70
   -2
  9
$DIMLWE
 70
   -2
  9
$DIMTMOVE
 70
    0
  9
$DIMFXL
 40
1
  9
$DIMFXLON
 70
    0
  9
$DIMJOGANG
 40
0.7854
  9
$DIMTFILL
 70
    0
  9
$DIMTFILLCLR
 70
    0
  9
$DIMARCSYM
 70
    0
  9
$DIMLTYPE
  6

  9
$DIMLTEX1
  6

  9
$DIMLTEX2
  6

  9
$LUNITS
 70
    2
  9
$LUPREC
 70
    4
  9
$SKETCHINC
 40
1
  9
$FILLETRAD
 40
0
  9
$AUNITS
 70
    0
  9
$AUPREC
 70
    2
  9
$MENU
  1
.
  9
$ELEVATION
 40
0
  9
$PELEVATION
 40
0
  9
$THICKNESS
 40
0
  9
$LIMCHECK
 70
    0
  9
$CHAMFERA
 40
0
  9
$CHAMFERB
 40
0
  9
$CHAMFERC
 40
0
  9
$CHAMFERD
 40
0
  9
$SKPOLY
 70
    0
  9
$USRTIMER
 70
    1
  9
$ANGBASE
 50
0
  9
$ANGDIR
 70
    0
  9
$PDMODE
 70
   34
  9
$PDSIZE
 40
0
  9
$PLINEWID
 40
0
  9
$SPLFRAME
 70
    0
  9
$SPLINETYPE
 70
    2
  9
$SPLINESEGS
 70
    8
  9
$HANDSEED
  5
20000
  9
$SURFTAB1
 70
    6
  9
$SURFTAB2
 70
    6
  9
$SURFTYPE
 70
    6
  9
$SURFU
 70
    6
  9
$SURFV
 70
    6
  9
$UCSBASE
  2

  9
$UCSNAME
  2

  9
$UCSORG
 10
0
 20
0
 30
0
  9
$UCSXDIR
 10
1
 20
0
 30
0
  9
$UCSYDIR
 10
0
 20
1
 30
0
  9
$UCSORTHOREF
  2

  9
$UCSORTHOVIEW
 70
    0
  9
$UCSORGTOP
 10
0
 20
0
 30
0
  9
$UCSORGBOTTOM
 10
0
 20
0
 30
0
  9
$UCSORGLEFT
 10
0
 20
0
 30
0
  9
$UCSORGRIGHT
 10
0
 20
0
 30
0
  9
$UCSORGFRONT
 10
0
 20
0
 30
0
  9
$UCSORGBACK
 10
0
 20
0
 30
0
  9
$PUCSBASE
  2

  9
$PUCSNAME
  2

  9
$PUCSORG
 10
0
 20
0
 30
0
  9
$PUCSXDIR
 10
1
 20
0
 30
0
  9
$PUCSYDIR
 10
0
 20
1
 30
0
  9
$PUCSORTHOREF
  2

  9
$PUCSORTHOVIEW
 70
    0
  9
$PUCSORGTOP
 10
0
 20
0
 30
0
  9
$PUCSORGBOTTOM
 10
0
 20
0
 30
0
  9
$PUCSORGLEFT
 10
0
 20
0
 30
0
  9
$PUCSORGRIGHT
 10
0
 20
0
 30
0
  9
$PUCSORGFRONT
 10
0
 20
0
 30
0
  9
$PUCSORGBACK
 10
0
 20
0
 30
0
  9
$USERI1
 70
    0
  9
$USERI2
 70
    0
  9
$USERI3
 70
    0
  9
$USERI4
 70
    0
  9
$USERI5
 70
    0
  9
$USERR1
 40
0
  9
$USERR2
 40
0
  9
$USERR3
 40
0
  9
$USERR4
 40
0
  9
$USERR5
 40
0
  9
$WORLDVIEW
 70
    1
  9
$SHADEDGE
 70
    3
  9
$SHADEDIF
 70
   70
  9
$TILEMODE
 70
    1
  9
$MAXACTVP
 70
   64
  9
$PINSBASE
 10
0
 20
0
 30
0
  9
$PLIMCHECK
 70
    0
  9
$PEXTMIN
 10
0
 20
0
 30
0
  9
$PEXTMAX
 10
0
 20
0
 30
0
  9
$SNAPSTYLE
 70
    0
  9
$PLIMMIN
 10
0
 20
0
  9
$PLIMMAX
 10
210
 20
297
  9
$UNITMODE
 70
    0
  9
$VISRETAIN
 70
    1
  9
$PLINEGEN
 70
    0
  9
$PSLTSCALE
 70
    1
  9
$TREEDEPTH
 70
 3020
  9
$CMLSTYLE
  2
Standard
  9
$CMLJUST
 70
    0
  9
$CMLSCALE
 40
20
  9
$PROXYGRAPHICS
 70
    1
  9
$MEASUREMENT
 70
    1
  9
$CELWEIGHT
370
   -1
  9
$ENDCAPS
280
    0
  9
$JOINSTYLE
280
    0
  9
$LWDISPLAY
290
    0
  9
$INSUNITS
 70
    4
  9
$HYPERLINKBASE
  1

  9
$STYLESHEET
  1

  9
$XEDIT
290
    1
  9
$CEPSNTYPE
380
    0
  9
$PSTYLEMODE
290
    1
  9
$EXTNAMES
290
    1
  9
$PSVPSCALE
 40
1
  9
$OLESTARTUP
290
    0
  9
$SORTENTS
280
  127
  9
$INDEXCTL
280
    0
  9
$HIDETEXT
280
    1
  9
$XCLIPFRAME
290
    0
  9
$HALOGAP
280
    0
  9
$OBSCOLOR
 70
  257
  9
$OBSLTYPE
280
    0
  9
$INTERSECTIONDISPLAY
280
    0
  9
$INTERSECTIONCOLOR
 70
  257
  9
$DIMASSOC
280
    1
  9
$PROJECTNAME
  1

  9
$CAMERADISPLAY
290
    0
  9
$LENSLENGTH
 40
50
  9
$CAMERAHEIGHT
 40
0
  9
$STEPSPERSEC
 40
2
  9
$STEPSIZE
 40
50
  9
$3DDWFPREC
 40
2
  9
$PSOLWIDTH
 40
5
  9
$PSOLHEIGHT
 40
80
  9
$LOFTANG1
 40
1.570796326794897
  9
$LOFTANG2
 40
1.570796326794897
  9
$LOFTMAG1
 40
0
  9
$LOFTMAG2
 40
0
  9
$LOFTPARAM
 70
    7
  9
$LOFTNORMALS
280
    1
  9
$LATITUDE
 40
1
  9
$LONGITUDE
 40
1
  9
$NORTHDIRECTION
 40
0
  9
$TIMEZONE
 70
-8000
  9
$LIGHTGLYPHDISPLAY
280
    1
  9
$TILEMODELIGHTSYNCH
280
    1
  9
$SOLIDHIST
280
    1
  9
$SHOWHIST
280
    1
  9
$DWFFRAME
280
    2
  9
$DGNFRAME
280
    0
  9
$REALWORLDSCALE
290
    1
  9
$INTERFERECOLOR
 62
    1
  9
$CSHADOW
280
    0
  9
$SHADOWPLANELOCATION
 40
0
  0
ENDSEC
  0
SECTION
  2
CLASSES
  0
ENDSEC
  0
SECTION
  2
TABLES
  0
TABLE
  2
VPORT
  5
8
330
0
100
AcDbSymbolTable
 70
    1
  0
VPORT
  5
31
330
2
100
AcDbSymbolTableRecord
100
AcDbViewportTableRecord
  2
*ACTIVE
 70
    0
 10
0
 20
0
 11
1
 21
1
 12
47.38393530445741
 22
16.1996360015239
 13
0
 23
0
 14
10
 24
10
 15
10
 25
10
 16
0
 26
0
 36
1
 17
0
 27
0
 37
0
 40
111.7774884105149
 41
1.554865424430642
 42
50
 43
0
 44
0
 50
0
 51
0
 71
    0
 72
  100
 73
    1
 74
    3
 75
    0
 76
    1
 77
    0
 78
    0
281
    0
 65
    1
110
0
120
0
130
0
111
1
121
0
131
0
112
0
122
1
132
0
 79
    0
146
0
348
10020
 60
    7
 61
    5
292
1
282
    1
141
0
142
0
 63
  250
421
3358443
  0
ENDTAB
  0
TABLE
  2
LTYPE
  5
5
330
0
100
AcDbSymbolTable
 70
    4
  0
LTYPE
  5
14
330
5
100
AcDbSymbolTableRecord
100
AcDbLinetypeTableRecord
  2
ByBlock
 70
    0
  3

 72
   65
 73
    0
 40
0
  0
LTYPE
  5
15
330
5
100
AcDbSymbolTableRecord
100
AcDbLinetypeTableRecord
  2
ByLayer
 70
    0
  3

 72
   65
 73
    0
 40
0
  0
LTYPE
  5
16
330
5
100
AcDbSymbolTableRecord
100
AcDbLinetypeTableRecord
  2
Continuous
 70
    0
  3
Solid line
 72
   65
 73
    0
 40
0
  0
LTYPE
  5
32
330
5
100
AcDbSymbolTableRecord
100
AcDbLinetypeTableRecord
  2
DOT
 70
    0
  3
Dot . . . . . . . . . . . . . . . . . . . . . .
 72
   65
 73
    2
 40
6.35
 49
0
 74
    0
 49
-6.35
 74
    0
  0
LTYPE
  5
33
330
5
100
AcDbSymbolTableRecord
100
AcDbLinetypeTableRecord
  2
DOTTINY
 70
    0
  3
Dot (.15x) .....................................
 72
   65
 73
    2
 40
0.9525
 49
0
 74
    0
 49
-0.9525
 74
    0
  0
LTYPE
  5
34
330
5
100
AcDbSymbolTableRecord
100
AcDbLinetypeTableRecord
  2
DOT2
 70
    0
  3
Dot (.5x) .....................................
 72
   65
 73
    2
 40
3.175
 49
0
 74
    0
 49
-3.175
 74
    0
  0
LTYPE
  5
35
330
5
100
AcDbSymbolTableRecord
100
AcDbLinetypeTableRecord
  2
DOTX2
 70
    0
  3
Dot (2x) .  .  .  .  .  .  .  .  .  .  .  .  .
 72
   65
 73
    2
 40
12.7
 49
0
 74
    0
 49
-12.7
 74
    0
  0
LTYPE
  5
36
330
5
100
AcDbSymbolTableRecord
100
AcDbLinetypeTableRecord
  2
DASHED
 70
    0
  3
Dashed _ _ _ _ _ _ _ _ _ _ _ _ _ _ _ _ _
 72
   65
 73
    2
 40
19.05
 49
12.7
 74
    0
 49
-6.35
 74
    0
  0
LTYPE
  5
37
330
5
100
AcDbSymbolTableRecord
100
AcDbLinetypeTableRecord
  2
DASHEDTINY
 70
    0
  3
Dashed (.15x) _ _ _ _ _ _ _ _ _ _ _ _ _ _ _ _ _
 72
   65
 73
    2
 40
2.8575
 49
1.905
 74
    0
 49
-0.9525
 74
    0
  0
LTYPE
  5
38
330
5
100
AcDbSymbolTableRecord
100
AcDbLinetypeTableRecord
  2
DASHED2
 70
    0
  3
Dashed (.5x) _ _ _ _ _ _ _ _ _ _ _ _ _ _ _ _ _
 72
   65
 73
    2
 40
9.524999999999999
 49
6.35
 74
    0
 49
-3.175
 74
    0
  0
LTYPE
  5
39
330
5
100
AcDbSymbolTableRecord
100
AcDbLinetypeTableRecord
  2
DASHEDX2
 70
    0
  3
Dashed (2x) ____  ____  ____  ____  ____  ___
 72
   65
 73
    2
 40
38.09999999999999
 49
25.4
 74
    0
 49
-12.7
 74
    0
  0
LTYPE
  5
3A
330
5
100
AcDbSymbolTableRecord
100
AcDbLinetypeTableRecord
  2
DASHDOT
 70
    0
  3
Dash dot __ . __ . __ . __ . __ . __ . __ . __
 72
   65
 73
    4
 40
25.4
 49
12.7
 74
    0
 49
-6.35
 74
    0
 49
0
 74
    0
 49
-6.35
 74
    0
  0
LTYPE
  5
3B
330
5
100
AcDbSymbolTableRecord
100
AcDbLinetypeTableRecord
  2
DASHDOTTINY
 70
    0
  3
Dash dot (.15x) _._._._._._._._._._._._._._._.
 72
   65
 73
    4
 40
3.81
 49
1.905
 74
    0
 49
-0.9525
 74
    0
 49
0
 74
    0
 49
-0.9525
 74
    0
  0
LTYPE
  5
3C
330
5
100
AcDbSymbolTableRecord
100
AcDbLinetypeTableRecord
  2
DASHDOT2
 70
    0
  3
Dash dot (.5x) _._._._._._._._._._._._._._._.
 72
   65
 73
    4
 40
12.7
 49
6.35
 74
    0
 49
-3.175
 74
    0
 49
0
 74
    0
 49
-3.175
 74
    0
  0
LTYPE
  5
3D
330
5
100
AcDbSymbolTableRecord
100
AcDbLinetypeTableRecord
  2
DASHDOTX2
 70
    0
  3
Dash dot (2x) ____  .  ____  .  ____  .  ___
 72
   65
 73
    4
 40
50.8
 49
25.4
 74
    0
 49
-12.7
 74
    0
 49
0
 74
    0
 49
-12.7
 74
    0
  0
LTYPE
  5
3E
330
5
100
AcDbSymbolTableRecord
100
AcDbLinetypeTableRecord
  2
DIVIDE
 70
    0
  3
Divide ____ . . ____ . . ____ . . ____ . . ____
 72
   65
 73
    6
 40
31.75
 49
12.7
 74
    0
 49
-6.35
 74
    0
 49
0
 74
    0
 49
-6.35
 74
    0
 49
0
 74
    0
 49
-6.35
 74
    0
  0
LTYPE
  5
3F
330
5
100
AcDbSymbolTableRecord
100
AcDbLinetypeTableRecord
  2
DIVIDETINY
 70
    0
  3
Divide (.15x) __..__..__..__..__..__..__..__.._
 72
   65
 73
    6
 40
4.7625
 49
1.905
 74
    0
 49
-0.9525
 74
    0
 49
0
 74
    0
 49
-0.9525
 74
    0
 49
0
 74
    0
 49
-0.9525
 74
    0
  0
LTYPE
  5
40
330
5
100
AcDbSymbolTableRecord
100
AcDbLinetypeTableRecord
  2
DIVIDE2
 70
    0
  3
Divide (.5x) __..__..__..__..__..__..__..__.._
 72
   65
 73
    6
 40
15.875
 49
6.35
 74
    0
 49
-3.175
 74
    0
 49
0
 74
    0
 49
-3.175
 74
    0
 49
0
 74
    0
 49
-3.175
 74
    0
  0
LTYPE
  5
41
330
5
100
AcDbSymbolTableRecord
100
AcDbLinetypeTableRecord
  2
DIVIDEX2
 70
    0
  3
Divide (2x) ________  .  .  ________  .  .  _
 72
   65
 73
    6
 40
63.5
 49
25.4
 74
    0
 49
-12.7
 74
    0
 49
0
 74
    0
 49
-12.7
 74
    0
 49
0
 74
    0
 49
-12.7
 74
    0
  0
LTYPE
  5
42
330
5
100
AcDbSymbolTableRecord
100
AcDbLinetypeTableRecord
  2
BORDER
 70
    0
  3
Border __ __ . __ __ . __ __ . __ __ . __ __ .
 72
   65
 73
    6
 40
44.45
 49
12.7
 74
    0
 49
-6.35
 74
    0
 49
12.7
 74
    0
 49
-6.35
 74
    0
 49
0
 74
    0
 49
-6.35
 74
    0
  0
LTYPE
  5
43
330
5
100
AcDbSymbolTableRecord
100
AcDbLinetypeTableRecord
  2
BORDERTINY
 70
    0
  3
Border (.15x) __.__.__.__.__.__.__.__.__.__.__.
 72
   65
 73
    6
 40
6.6675
 49
1.905
 74
    0
 49
-0.9525
 74
    0
 49
1.905
 74
    0
 49
-0.9525
 74
    0
 49
0
 74
    0
 49
-0.9525
 74
    0
  0
LTYPE
  5
44
330
5
100
AcDbSymbolTableRecord
100
AcDbLinetypeTableRecord
  2
BORDER2
 70
    0
  3
Border (.5x) __.__.__.__.__.__.__.__.__.__.__.
 72
   65
 73
    6
 40
22.225
 49
6.35
 74
    0
 49
-3.175
 74
    0
 49
6.35
 74
    0
 49
-3.175
 74
    0
 49
0
 74
    0
 49
-3.175
 74
    0
  0
LTYPE
  5
45
330
5
100
AcDbSymbolTableRecord
100
AcDbLinetypeTableRecord
  2
BORDERX2
 70
    0
  3
Border (2x) ____  ____  .  ____  ____  .  ___
 72
   65
 73
    6
 40
88.89999999999999
 49
25.4
 74
    0
 49
-12.7
 74
    0
 49
25.4
 74
    0
 49
-12.7
 74
    0
 49
0
 74
    0
 49
-12.7
 74
    0
  0
LTYPE
  5
46
330
5
100
AcDbSymbolTableRecord
100
AcDbLinetypeTableRecord
  2
CENTER
 70
    0
  3
Center ____ _ ____ _ ____ _ ____ _ ____ _ ____
 72
   65
 73
    4
 40
50.8
 49
31.75
 74
    0
 49
-6.35
 74
    0
 49
6.35
 74
    0
 49
-6.35
 74
    0
  0
LTYPE
  5
47
330
5
100
AcDbSymbolTableRecord
100
AcDbLinetypeTableRecord
  2
CENTERTINY
 70
    0
  3
Center (.15x) ___ _ ___ _ ___ _ ___ _ ___ _ ___
 72
   65
 73
    4
 40
7.619999999999999
 49
4.7625
 74
    0
 49
-0.9525
 74
    0
 49
0.9525
 74
    0
 49
-0.9525
 74
    0
  0
LTYPE
  5
48
330
5
100
AcDbSymbolTableRecord
100
AcDbLinetypeTableRecord
  2
CENTER2
 70
    0
  3
Center (.5x) ___ _ ___ _ ___ _ ___ _ ___ _ ___
 72
   65
 73
    4
 40
28.575
 49
19.05
 74
    0
 49
-3.175
 74
    0
 49
3.175
 74
    0
 49
-3.175
 74
    0
  0
LTYPE
  5
49
330
5
100
AcDbSymbolTableRecord
100
AcDbLinetypeTableRecord
  2
CENTERX2
 70
    0
  3
Center (2x) ________  __  ________  __  _____
 72
   65
 73
    4
 40
101.6
 49
63.5
 74
    0
 49
-12.7
 74
    0
 49
12.7
 74
    0
 49
-12.7
 74
    0
  0
ENDTAB
  0
TABLE
  2
LAYER
  5
2
330
0
100
AcDbSymbolTable
 70
    1
  0
LAYER
  5
10
330
2
100
AcDbSymbolTableRecord
100
AcDbLayerTableRecord
  2
0
 70
    0
 62
    7
  6
CONTINUOUS
370
   -3
390
F
  0
LAYER
  5
4A
330
2
100
AcDbSymbolTableRecord
100
AcDbLayerTableRecord
  2
guides
 70
    0
 62
    2
  6
CONTINUOUS
370
    0
390
F
1001
LibreCad
1070
    1
  0
LAYER
  5
4B
330
2
100
AcDbSymbolTableRecord
100
AcDbLayerTableRecord
  2
guides1
 70
    0
 62
    3
  6
CONTINUOUS
370
    0
390
F
1001
LibreCad
1070
    1
  0
ENDTAB
  0
TABLE
  2
STYLE
  5
3
330
0
100
AcDbSymbolTable
 70
    3
  0
STYLE
  5
4C
330
2
100
AcDbSymbolTableRecord
100
AcDbTextStyleTableRecord
  2
Standard
 70
    0
 40
0
 41
1
 50
0
 71
    0
 42
1
  3
txt
  4

  0
ENDTAB
  0
TABLE
  2
VIEW
  5
6
330
0
100
AcDbSymbolTable
 70
    0
  0
ENDTAB
  0
TABLE
  2
UCS
  5
7
330
0
100
AcDbSymbolTable
 70
    0
  0
ENDTAB
  0
TABLE
  2
APPID
  5
9
330
0
100
AcDbSymbolTable
 70
    1
  0
APPID
  5
12
330
9
100
AcDbSymbolTableRecord
100
AcDbRegAppTableRecord
  2
ACAD
 70
    0
  0
APPID
  5
4D
330
9
100
AcDbSymbolTableRecord
100
AcDbRegAppTableRecord
  2
LibreCad
 70
    0
  0
ENDTAB
  0
TABLE
  2
DIMSTYLE
  5
A
330
0
100
AcDbSymbolTable
 70
    1
100
AcDbDimStyleTable
 71
    1
  0
DIMSTYLE
105
4E
330
A
100
AcDbSymbolTableRecord
100
AcDbDimStyleTableRecord
  2
Standard
 70
    0
 40
1
 41
2.5
 42
0.625
 43
0.38
 44
1.25
 45
0
 46
0
 47
0
 48
0
 49
1
140
2.5
141
0.09
142
2.5
143
25.4
144
1
145
0
146
1
147
0.625
148
0
 71
    0
 72
    0
 73
    0
 74
    1
 75
    0
 76
    0
 77
    0
 78
    1
 79
    0
170
    0
171
    2
172
    0
173
    0
174
    0
175
    0
176
    0
177
    0
178
    0
179
    0
271
    2
272
    4
273
    2
274
    2
275
    0
276
    0
277
    2
278
    0
279
    0
280
    0
281
    0
282
    0
283
    1
284
    0
285
    0
286
    0
288
    0
289
    3
340
standard
341

371
   -2
372
   -2
  0
ENDTAB
  0
TABLE
  2
BLOCK_RECORD
  5
1
330
0
100
AcDbSymbolTable
 70
    2
  0
BLOCK_RECORD
  5
1F
330
1
100
AcDbSymbolTableRecord
100
AcDbBlockTableRecord
  2
*Model_Space
 70
    0
280
    1
281
    0
  0
BLOCK_RECORD
  5
1E
330
1
100
AcDbSymbolTableRecord
100
AcDbBlockTableRecord
  2
*Paper_Space
 70
    0
280
    1
281
    0
  0
ENDTAB
  0
ENDSEC
  0
SECTION
  2
BLOCKS
  0
BLOCK
  5
20
330
1F
100
AcDbEntity
  8
0
100
AcDbBlockBegin
  2
*Model_Space
 70
    0
 10
0
 20
0
 30
0
  3
*Model_Space
  1

  0
ENDBLK
  5
21
330
1F
100
AcDbEntity
  8
0
100
AcDbBlockEnd
  0
BLOCK
  5
1C
330
1B
100
AcDbEntity
  8
0
100
AcDbBlockBegin
  2
*Paper_Space
 70
    0
 10
0
 20
0
 30
0
  3
*Paper_Space
  1

  0
ENDBLK
  5
1D
330
1F
100
AcDbEntity
  8
0
100
AcDbBlockEnd
  0
ENDSEC
  0
SECTION
  2
ENTITIES
  0
LWPOLYLINE
  5
4F
100
AcDbEntity
  8
0
  6
ByLayer
 62
  256
370
   -1
100
AcDbPolyline
 90
  107
 70
    1
 43
0
 10
11.92055
 20
-10.00045000000005
 10
12.03935
 20
-9.978750000000055
 10
12.15465
 20
-9.942750000000053
 10
12.26475
 20
-9.893250000000059
 10
12.36815
 20
-9.830750000000059
 10
12.46315
 20
-9.756250000000058
 10
12.54855
 20
-9.670850000000051
 10
12.62305
 20
-9.575850000000052
 10
12.68545
 20
-9.472450000000059
 10
12.73505
 20
-9.362350000000056
 10
12.77095
 20
-9.247050000000051
 10
12.79275
 20
-9.128250000000058
 10
12.80005
 20
-9.007750000000051
 10
12.80005
 20
0.8922499999999474
 10
12.79365
 20
1.051949999999948
 10
12.79315
 20
1.057349999999943
 10
12.77455
 20
1.210549999999948
 10
12.77275
 20
1.221449999999948
 10
12.74285
 20
1.367149999999945
 10
12.73885
 20
1.383249999999947
 10
12.69875
 20
1.520749999999943
 10
12.69165
 20
1.541649999999947
 10
12.64245
 20
1.670349999999942
 10
12.63155
 20
1.695649999999944
 10
12.57445
 20
1.814949999999946
 10
12.55895
 20
1.844149999999942
 10
12.49515
 20
1.953649999999946
 10
12.47435
 20
1.986149999999945
 10
12.40495
 20
2.085649999999944
 10
12.37835
 20
2.120649999999948
 10
12.30455
 20
2.209949999999942
 10
12.27145
 20
2.246849999999945
 10
12.19455
 20
2.325849999999946
 10
12.15465
 20
2.363649999999943
 10
12.07565
 20
2.432549999999942
 10
12.02845
 20
2.470549999999946
 10
11.94865
 20
2.529549999999944
 10
11.89395
 20
2.566549999999943
 10
11.81335
 20
2.616349999999947
 10
11.75195
 20
2.651149999999944
 10
11.67375
 20
2.690949999999944
 10
11.60345
 20
2.723749999999946
 10
11.53075
 20
2.753349999999948
 10
11.44945
 20
2.783849999999944
 10
11.38525
 20
2.803949999999944
 10
11.29105
 20
2.831049999999948
 10
11.23845
 20
2.842949999999945
 10
11.12925
 20
2.864949999999943
 10
11.09135
 20
2.870449999999948
 10
10.96515
 20
2.885449999999942
 10
10.94485
 20
2.886849999999946
 10
10.80005
 20
2.892249999999947
 10
-10.79995
 20
2.892249999999947
 10
-10.87065
 20
2.890949999999947
 10
-10.94235
 20
2.886949999999942
 10
-10.96515
 20
2.885449999999942
 10
-11.08845
 20
2.870849999999947
 10
-11.12915
 20
2.864949999999943
 10
-11.23645
 20
2.843549999999944
 10
-11.29095
 20
2.831049999999948
 10
-11.38485
 20
2.804549999999942
 10
-11.44935
 20
2.783849999999944
 10
-11.53185
 20
2.753449999999944
 10
-11.60335
 20
2.723749999999946
 10
-11.67585
 20
2.690149999999946
 10
-11.75185
 20
2.651149999999944
 10
-11.81535
 20
2.615249999999946
 10
-11.89385
 20
2.566549999999943
 10
-11.94855
 20
2.529549999999944
 10
-12.02835
 20
2.470549999999946
 10
-12.07565
 20
2.432549999999942
 10
-12.15455
 20
2.363649999999943
 10
-12.19455
 20
2.325849999999946
 10
-12.27145
 20
2.246849999999945
 10
-12.30455
 20
2.209949999999942
 10
-12.37825
 20
2.120649999999948
 10
-12.40495
 20
2.085649999999944
 10
-12.47435
 20
1.986149999999945
 10
-12.49505
 20
1.953649999999946
 10
-12.55895
 20
1.844149999999942
 10
-12.57445
 20
1.814949999999946
 10
-12.63155
 20
1.695649999999944
 10
-12.64245
 20
1.670349999999942
 10
-12.69165
 20
1.541649999999947
 10
-12.69865
 20
1.520749999999943
 10
-12.73875
 20
1.383249999999947
 10
-12.74275
 20
1.367149999999945
 10
-12.77265
 20
1.221449999999948
 10
-12.77445
 20
1.210549999999948
 10
-12.79315
 20
1.057349999999943
 10
-12.79355
 20
1.051949999999948
 10
-12.79995
 20
0.8922499999999474
 10
-12.79995
 20
-9.007750000000051
 10
-12.79265
 20
-9.128250000000058
 10
-12.77095
 20
-9.247050000000051
 10
-12.73495
 20
-9.362350000000056
 10
-12.68545
 20
-9.472450000000059
 10
-12.62295
 20
-9.575850000000052
 10
-12.54845
 20
-9.670850000000051
 10
-12.46305
 20
-9.756250000000058
 10
-12.36805
 20
-9.830750000000059
 10
-12.26465
 20
-9.893250000000059
 10
-12.15455
 20
-9.942750000000053
 10
-12.03925
 20
-9.978750000000055
 10
-11.92055
 20
-10.00045000000005
 10
-11.79995
 20
-10.00775000000005
 10
11.80005
 20
-10.00775000000005
  0
LWPOLYLINE
  5
50
100
AcDbEntity
  8
0
  6
ByLayer
 62
  256
370
   -1
100
AcDbPolyline
 90
  133
 70
    1
 43
0
 10
-0.1580500000000029
 20
-1.700350000000057
 10
-0.2100500000000025
 20
-1.693050000000056
 10
-0.314549999999997
 20
-1.678250000000055
 10
-0.3772500000000036
 20
-1.663550000000058
 10
-0.4685500000000005
 20
-1.641750000000052
 10
-0.5321500000000015
 20
-1.620450000000055
 10
-0.6184500000000028
 20
-1.591050000000052
 10
-0.6824500000000029
 20
-1.562750000000058
 10
-0.7628500000000003
 20
-1.526650000000053
 10
-0.8258500000000026
 20
-1.491550000000053
 10
-0.9008499999999984
 20
-1.449050000000057
 10
-0.9610500000000002
 20
-1.407850000000053
 10
-1.030749999999998
 20
-1.359150000000056
 10
-1.088149999999999
 20
-1.311550000000054
 10
-1.151949999999999
 20
-1.257450000000055
 10
-1.204650000000001
 20
-1.204750000000054
 10
-1.26305
 20
-1.144850000000055
 10
-1.311050000000002
 20
-1.087050000000055
 10
-1.363250000000001
 20
-1.022550000000052
 10
-1.40605
 20
-0.9600500000000523
 10
-1.451650000000001
 20
-0.8913500000000525
 10
-1.48865
 20
-0.8248500000000547
 10
-1.527450000000002
 20
-0.7526500000000524
 10
-1.558250000000001
 20
-0.6828500000000517
 10
-1.590049999999998
 20
-0.6073500000000536
 10
-1.614249999999998
 20
-0.5349500000000518
 10
-1.638849999999998
 20
-0.4569500000000559
 10
-1.656350000000003
 20
-0.3825500000000517
 10
-1.673450000000003
 20
-0.3025500000000534
 10
-1.684049999999999
 20
-0.2269500000000519
 10
-1.693550000000002
 20
-0.1457500000000564
 10
-1.697150000000001
 20
-0.06905000000005401
 10
-1.69905
 20
0.01224999999994481
 10
-1.695450000000001
 20
0.08914999999994677
 10
-1.689750000000004
 20
0.1701499999999427
 10
-1.67915
 20
0.2463499999999428
 10
-1.665849999999999
 20
0.3265499999999477
 10
-1.648249999999997
 20
0.4013499999999439
 10
-1.627549999999999
 20
0.4798499999999422
 10
-1.603050000000003
 20
0.5530499999999421
 10
-1.575150000000001
 20
0.6290499999999426
 10
-1.543950000000002
 20
0.6996499999999486
 10
-1.509149999999998
 20
0.7726499999999419
 10
-1.471550000000001
 20
0.8400499999999482
 10
-1.429949999999998
 20
0.9097499999999457
 10
-1.38635
 20
0.9733499999999466
 10
-1.338450000000002
 20
1.038549999999944
 10
-1.289050000000003
 20
1.098049999999944
 10
-1.235350000000004
 20
1.158449999999945
 10
-1.18065
 20
1.213149999999942
 10
-1.121549999999999
 20
1.268149999999942
 10
-1.062049999999999
 20
1.317649999999944
 10
-0.9980499999999992
 20
1.366949999999946
 10
-0.9342499999999987
 20
1.410649999999947
 10
-0.865949999999998
 20
1.453749999999943
 10
-0.798250000000003
 20
1.491449999999944
 10
-0.7262500000000003
 20
1.527949999999947
 10
-0.6556500000000014
 20
1.559149999999946
 10
-0.5802499999999995
 20
1.588749999999948
 10
-0.5069500000000033
 20
1.613349999999947
 10
-0.4294500000000028
 20
1.635749999999945
 10
-0.3539499999999975
 20
1.653549999999946
 10
-0.2748500000000007
 20
1.668549999999946
 10
-0.1979499999999987
 20
1.679249999999946
 10
-0.1176499999999976
 20
1.686749999999947
 10
-0.04025000000000034
 20
1.690349999999945
 10
0.04034999999999656
 20
1.690349999999945
 10
0.1177500000000009
 20
1.686749999999947
 10
0.1980500000000021
 20
1.679249999999946
 10
0.2748500000000007
 20
1.668549999999946
 10
0.3540500000000009
 20
1.653449999999943
 10
0.4294500000000028
 20
1.635749999999945
 10
0.5070499999999996
 20
1.613349999999947
 10
0.5803500000000028
 20
1.588749999999948
 10
0.6555499999999981
 20
1.559149999999946
 10
0.7263499999999965
 20
1.527849999999944
 10
0.798250000000003
 20
1.491449999999944
 10
0.8660500000000013
 20
1.453749999999943
 10
0.9341500000000025
 20
1.410749999999943
 10
0.9981500000000025
 20
1.366949999999946
 10
1.062249999999999
 20
1.317549999999947
 10
1.121549999999999
 20
1.268349999999948
 10
1.18085
 20
1.212949999999942
 10
1.235349999999997
 20
1.158549999999948
 10
1.289349999999999
 20
1.097849999999944
 10
1.338450000000002
 20
1.038649999999947
 10
1.386449999999996
 20
0.9732499999999433
 10
1.429949999999998
 20
0.9097499999999457
 10
1.471649999999997
 20
0.8400499999999482
 10
1.509149999999998
 20
0.7726499999999419
 10
1.544049999999999
 20
0.6996499999999486
 10
1.575150000000001
 20
0.6291499999999459
 10
1.603250000000003
 20
0.552649999999943
 10
1.627549999999999
 20
0.4800499999999417
 10
1.648350000000001
 20
0.4012499999999477
 10
1.665950000000002
 20
0.3265499999999477
 10
1.679249999999996
 20
0.2459499999999437
 10
1.68985
 20
0.1703499999999423
 10
1.695549999999997
 20
0.08854999999994817
 10
1.69905
 20
0.01244999999994434
 10
1.697150000000001
 20
-0.06925000000005355
 10
1.693649999999998
 20
-0.1457500000000564
 10
1.684049999999999
 20
-0.2269500000000519
 10
1.673549999999999
 20
-0.3025500000000534
 10
1.656349999999996
 20
-0.3825500000000517
 10
1.638950000000001
 20
-0.4569500000000559
 10
1.614150000000002
 20
-0.5354500000000542
 10
1.590150000000001
 20
-0.607150000000054
 10
1.558050000000001
 20
-0.6835500000000536
 10
1.527549999999998
 20
-0.7525500000000562
 10
1.488349999999997
 20
-0.8255500000000566
 10
1.451749999999997
 20
-0.8912500000000563
 10
1.405650000000001
 20
-0.9607500000000542
 10
1.363349999999997
 20
-1.022450000000056
 10
1.310949999999998
 20
-1.087350000000058
 10
1.263150000000003
 20
-1.144850000000055
 10
1.204650000000001
 20
-1.204750000000054
 10
1.151949999999999
 20
-1.257450000000055
 10
1.08775
 20
-1.311850000000057
 10
1.030850000000001
 20
-1.359150000000056
 10
0.9611499999999964
 20
-1.407750000000057
 10
0.9007500000000022
 20
-1.449150000000053
 10
0.8263499999999979
 20
-1.491350000000054
 10
0.7628500000000003
 20
-1.526650000000053
 10
0.6830500000000015
 20
-1.562550000000051
 10
0.6184500000000028
 20
-1.591050000000052
 10
0.5326499999999967
 20
-1.620250000000055
 10
0.4686499999999967
 20
-1.641750000000052
 10
0.3773499999999999
 20
-1.663550000000058
 10
0.3146500000000003
 20
-1.678250000000055
 10
0.2101499999999987
 20
-1.693050000000056
 10
0.1580500000000029
 20
-1.700350000000057
 10
5.000000000165983e-05
 20
-1.707750000000054
  0
LINE
  5
51
100
AcDbEntity
  8
guides
  6
ByLayer
 62
  256
370
   -1
100
AcDbLine
 10
5.000000000165983e-05
 20
-1.707750000000054
 11
30.00004999999999
 21
-1.707750000000054
  0
LINE
  5
52
100
AcDbEntity
  8
guides
  6
ByLayer
 62
  256
370
   -1
100
AcDbLine
 10
4.999999982402414e-05
 20
1.707750000000075
 11
30.00004999999982
 21
1.707750000000075
  0
LINE
  5
53
100
AcDbEntity
  8
guides
  6
ByLayer
 62
  256
370
   -1
100
AcDbLine
 10
-1.69905
 20
1.707750000000075
 11
1.69905
 21
-1.707750000000054
  0
LINE
  5
54
100
AcDbEntity
  8
guides
  6
ByLayer
 62
  256
370
   -1
100
AcDbLine
 10
1.69905
 20
1.707750000000075
 11
-1.69905
 21
-1.707750000000054
  0
CIRCLE
  5
55
100
AcDbEntity
  8
guides1
  6
ByLayer
 62
  256
370
   -1
100
AcDbCircle
 10
0
 20
0
 40
1.704890217984203
  0
ENDSEC
  0
SECTION
  2
OBJECTS
  0
DICTIONARY
  5
C
330
0
100
AcDbDictionary
281
    1
  3
ACAD_GROUP
350
D
  0
DICTIONARY
  5
D
330
C
100
AcDbDictionary
281
    1
  0
PLOTSETTINGS
  5
56
100
AcDbPlotSettings
  6
1x1
 40
0
 41
0
 42
0
 43
0
  0
ENDSEC
  0
EOF
